{
    "name" : "Dachcom Page Designer",
    "slug" : "dachcom-page-designer",
    "homepage" : "http://www.dachcom.com",
    "download_url" : "http://repo.dachcom.com/wp/?action=download&slug=dachcom-page-designer",
    "author" : "Stefan Hagspiel",
    "author_homepage" : "http://www.dachcom.com",

    "version" : "1.8.0",
    "requires" : "4.0",
    "tested" : "4.3.1",

    "rating" : 0,
    "num_ratings" : 0,
    "downloaded" : 0
}